module github.com/truemark/bbc

go 1.16

require (
	github.com/fsnotify/fsnotify v1.4.9 // indirect
	github.com/google/uuid v1.2.0
	github.com/magiconair/properties v1.8.5 // indirect
	github.com/mitchellh/mapstructure v1.4.1 // indirect
	github.com/pelletier/go-toml v1.9.1 // indirect
	github.com/rs/zerolog v1.22.0
	github.com/spf13/afero v1.6.0 // indirect
	github.com/spf13/cast v1.3.1 // indirect
	github.com/spf13/cobra v1.1.3
	github.com/spf13/jwalterweatherman v1.1.0 // indirect
	github.com/spf13/viper v1.7.1
	github.com/stretchr/testify v1.7.0
	golang.org/x/sys v0.0.0-20210521203332-0cec03c779c1 // indirect
	golang.org/x/text v0.3.6 // indirect
	gopkg.in/ini.v1 v1.62.0 // indirect
	gopkg.in/yaml.v3 v3.0.0-20210107192922-496545a6307b // indirect
)
